[
  {
    "name": "yahoo.com"
  },
  {
    "name": "gmail.com"
  },
  {
    "name": "hotmail.com"
  },
  {
    "name": "mail.ru"
  },
  {
    "name": "mail.com"
  },
  {
    "name": "aol.com"
  },
  {
    "name": "yandex.ru"
  },
  {
    "name": "bk.ru"
  },
  {
    "name": "inbox.ru"
  },
  {
    "name": "mail.kz"
  },
  {
    "name": "rambler.ru"
  },
  {
    "name": "inbox.com"
  },
  {
    "name": "yandex.kz"
  },
  {
    "name": "list.ru"
  }
]
