[
  {
    "_id": "51eae100c2e6b6c222ec3431",
    "name": {
      "en": "Admin, PA, Visas support, PTW",
      "ru": "Административная работа, рабочие разрешения, визовая поддержка"
    }
  },
  {
    "_id": "51eae100c2e6b6c222ec3432",
    "name": {
      "en": "Art",
      "ru": "Искусство, культура, фотография"
    }
  },
  {
    "_id": "51eae100c2e6b6c222ec3433",
    "name": {
      "en": "Automotive Business",
      "ru": "Автосервис"
    }
  },
  {
    "_id": "51eae100c2e6b6c222ec3434",
    "name": {
      "en": "Design",
      "ru": "Дизайн"
    }
  },
  {
    "name": {
      "en": "Education",
      "ru": "Образование"
    }
  },
  {
    "name": {
      "en": "Executive",
      "ru": "Топ-менеджмент"
    }
  },
  {
    "name": {
      "en": "Fitness, Beauty, Sport",
      "ru": "Фитнес, спорт, косметология"
    }
  },
  {
    "name": {
      "en": "Medicine, Pharmaceuticals",
      "ru": "Медицина, Фармацевтика"
    }
  },
  {
    "name": {
      "en": "Human Resources",
      "ru": "Управление человеческими ресурсами, рекрутинг"
    }
  },
  {
    "name": {
      "en": "Legal, Customs procedures, Compliance",
      "ru": "Юриспруденция, Таможенное дело, Нормативно-правовое соответствие"
    }
  },
  {
    "name": {
      "en": "Marketing, Advertising, PR",
      "ru": "Маркетинг, Реклама, PR"
    }
  },
  {
    "name": {
      "en": "Media-Journalism, Communications",
      "ru": "СМИ, Журналистика, Связи с общественностью"
    }
  },
  {
    "name": {
      "en": "Science, Biotechnologies, Chemistry, Geology",
      "ru": "Наука, Биотехнологии, Химические технологии, Геология"
    }
  },
  {
    "name": {
      "en": "Restaurant-Food Service",
      "ru": "Ресторанный бизнес"
    }
  },
  {
    "name": {
      "en": "HSE, Ecology",
      "ru": "Охрана труда и Техника Безопасности, Экология"
    }
  },
  {
    "name": {
      "en": "Hospitality, Tourism",
      "ru": "Гостиничный Бизнес, Туризм"
    }
  },
  {
    "name": {
      "en": "Training",
      "ru": "Тренинги"
    }
  },
  {
    "name": {
      "en": "Veterinary Services",
      "ru": "Ветеринария"
    }
  },
  {
    "name": {
      "en": "Internships",
      "ru": "Стажировки"
    }
  },
  {
    "name": {
      "en": "Translations",
      "ru": "Переводческое дело"
    }
  },
  {
    "name": {
      "en": "Agriculture",
      "ru": "Сельское хозяйство"
    }
  },
  {
    "name": {
      "en": "Finance, Accounting, Banking",
      "ru": "Бухгалтерия, Аудит, Финансы, Банковское дело"
    }
  },
  {
    "name": {
      "en": "Supply chain, purchasing and procurement, transportation services",
      "ru": "Логистика и закупки, менеджмент транспортных услуг"
    }
  },
  {
    "name": {
      "en": "Government, Nonprofit-Social services",
      "ru": "Государственная служба, некоммерческие организации"
    }
  },
  {
    "name": {
      "en": "Information Technology, Telecommunications",
      "ru": "Информационные технологии, Телекоммуникации"
    }
  },
  {
    "name": {
      "en": "Customer Service, Insurance, Real Estate",
      "ru": "Клиентское обслуживание, Страхование, Недвижимость"
    }
  },
  {
    "name": {
      "en": "General Labour",
      "ru": "Разнорабочие"
    }
  },
  {
    "name": {
      "en": "Oil and Gas, Engineering, Constructions, Manufacturing, QA/QC, Marine",
      "ru": "Нефть и Газ, Инженерное дело, Строительство, Производство, Служба качества, Судоходство"
    }
  },
  {
    "name": {
      "en": "Sales, Business Development, Key Account Management",
      "ru": "Продажи, Развитие бизнеса, Работа с ключевыми клиентами"
    }
  },
  {
    "name": {
      "en": "Project Management, Contracts management, Planning And Analysis, Document Controlling",
      "ru": "Управление проектами, Планирование и Анализ, Сопровождение контрактов, Документооборот"
    }
  }
]
