[
  {"phrase": { "en":"Accounts", "ru":"счета" } },
  {"phrase": { "en":"Program", "ru":"программа" } },
  {"phrase": { "en":"Applications", "ru":"приложений" } },
  {"phrase": { "en":"Accounts", "ru":"счета" } },
  {"phrase": { "en":"Directives", "ru":"директивы" } },
  {"phrase": { "en":"Functionality", "ru":"функциональность" } },
  {"phrase": { "en":"Division", "ru":"деление" } },
  {"phrase": { "en":"Mobility", "ru":"мобильность" } },
  {"phrase": { "en":"Optimization", "ru":"оптимизация" } },
  {"phrase": { "en":"Infrastructure", "ru":"инфраструктура" } },
  {"phrase": { "en":"Interactions", "ru":"взаимодействия" } },
  {"phrase": { "en":"Integration", "ru":"интеграция" } },
  {"phrase": { "en":"Configuration", "ru":"конфигурация" } },
  {"phrase": { "en":"Operations", "ru":"операции" } },
  {"phrase": { "en":"Markets", "ru":"рынки" } },
  {"phrase": { "en":"Metrics", "ru":"метрика" } },
  {"phrase": { "en":"Accountability", "ru":"подотчетность" } },
  {"phrase": { "en":"Optimization", "ru":"оптимизация" } },
  {"phrase": { "en":"Markets", "ru":"рынки" } },
  {"phrase": { "en":"Accounts", "ru":"счета" } },
  {"phrase": { "en":"Assurance", "ru":"гарантия" } },
  {"phrase": { "en":"Accounts", "ru":"счета" } },
  {"phrase": { "en":"Usability", "ru":"Удобство и простота" } },
  {"phrase": { "en":"Research", "ru":"исследования" } },
  {"phrase": { "en":"Creative", "ru":"созидательный" } },
  {"phrase": { "en":"Division", "ru":"деление" } },
  {"phrase": { "en":"Markets", "ru":"рынки" } },
  {"phrase": { "en":"Metrics", "ru":"метрика" } },
  {"phrase": { "en":"Creative", "ru":"созидательный" } },
  {"phrase": { "en":"Factors", "ru":"факторы" } },
  {"phrase": { "en":"Metrics", "ru":"метрика" } },
  {"phrase": { "en":"Program", "ru":"программа" } },
  {"phrase": { "en":"Quality", "ru":"качество" } },
  {"phrase": { "en":"Functionality", "ru":"функциональность" } },
  {"phrase": { "en":"Integration", "ru":"интеграция" } },
  {"phrase": { "en":"Applications", "ru":"приложений" } },
  {"phrase": { "en":"Usability", "ru":"Удобство и простота" } },
  {"phrase": { "en":"Assurance", "ru":"гарантия" } },
  {"phrase": { "en":"Data", "ru":"данные" } },
  {"phrase": { "en":"Configuration", "ru":"конфигурация" } },
  {"phrase": { "en":"Markets", "ru":"рынки" } },
  {"phrase": { "en":"Metrics", "ru":"метрика" } },
  {"phrase": { "en":"Interactions", "ru":"взаимодействия" } },
  {"phrase": { "en":"Directives", "ru":"директивы" } },
  {"phrase": { "en":"Branding", "ru":"брендинг" } },
  {"phrase": { "en":"Integration", "ru":"интеграция" } },
  {"phrase": { "en":"Identity", "ru":"идентичность" } },
  {"phrase": { "en":"Optimization", "ru":"оптимизация" } },
  {"phrase": { "en":"Response", "ru":"ответ" } },
  {"phrase": { "en":"Security", "ru":"безопасности" } },
  {"phrase": { "en":"Intranet", "ru":"интранета" } },
  {"phrase": { "en":"Brand", "ru":"огонь" } },
  {"phrase": { "en":"Operations", "ru":"операции" } },
  {"phrase": { "en":"Integration", "ru":"интеграция" } },
  {"phrase": { "en":"Research", "ru":"исследования" } },
  {"phrase": { "en":"Tactics", "ru":"тактика" } },
  {"phrase": { "en":"Quality", "ru":"качество" } },
  {"phrase": { "en":"Metrics", "ru":"метрика" } },
  {"phrase": { "en":"Accounts", "ru":"счета" } },
  {"phrase": { "en":"Directives", "ru":"директивы" } },
  {"phrase": { "en":"Division", "ru":"деление" } },
  {"phrase": { "en":"Assurance", "ru":"гарантия" } },
  {"phrase": { "en":"Security", "ru":"безопасности" } },
  {"phrase": { "en":"Directives", "ru":"директивы" } },
  {"phrase": { "en":"Accounts", "ru":"счета" } },
  {"phrase": { "en":"Metrics", "ru":"метрика" } },
  {"phrase": { "en":"Applications", "ru":"приложений" } },
  {"phrase": { "en":"Program", "ru":"программа" } },
  {"phrase": { "en":"Infrastructure", "ru":"инфраструктура" } },
  {"phrase": { "en":"Research", "ru":"исследования" } },
  {"phrase": { "en":"Directives", "ru":"директивы" } },
  {"phrase": { "en":"Paradigm", "ru":"парадигма" } },
  {"phrase": { "en":"Group", "ru":"группа" } },
  {"phrase": { "en":"Accounts", "ru":"счета" } },
  {"phrase": { "en":"Quality", "ru":"качество" } },
  {"phrase": { "en":"Quality", "ru":"качество" } },
  {"phrase": { "en":"Brand", "ru":"огонь" } },
  {"phrase": { "en":"Solutions", "ru":"Решения" } },
  {"phrase": { "en":"Functionality", "ru":"функциональность" } },
  {"phrase": { "en":"Quality", "ru":"качество" } },
  {"phrase": { "en":"Implementation", "ru":"реализация" } },
  {"phrase": { "en":"Operations", "ru":"операции" } },
  {"phrase": { "en":"Response", "ru":"ответ" } },
  {"phrase": { "en":"Group", "ru":"группа" } },
  {"phrase": { "en":"Usability", "ru":"Удобство и простота" } },
  {"phrase": { "en":"Research", "ru":"исследования" } },
  {"phrase": { "en":"Metrics", "ru":"метрика" } },
  {"phrase": { "en":"Identity", "ru":"идентичность" } },
  {"phrase": { "en":"Communications", "ru":"связи" } },
  {"phrase": { "en":"Group", "ru":"группа" } },
  {"phrase": { "en":"Accounts", "ru":"счета" } },
  {"phrase": { "en":"Operations", "ru":"операции" } },
  {"phrase": { "en":"Operations", "ru":"операции" } },
  {"phrase": { "en":"Quality", "ru":"качество" } },
  {"phrase": { "en":"Brand", "ru":"огонь" } }
]