[
  {
    "_id": "51eae100c2e6b6c222ec3432",
    "order": 0,
    "name": {
      "en": "Up to 200 000",
      "ru": "До 200 000"
    },
    "ranges": []
  },
  {
    "_id": "51eae100c2e6b6c222ec3431",
    "order": 1,
    "name": {
      "en": "200 001 - 400 000",
      "ru": "200 001 - 400 000"
    },
    "ranges": [
      "51eae100c2e6b6c222ec3433",
      "51eae100c2e6b6c222ec3434"
    ]
  },
  {
    "_id": "51eae100c2e6b6c222ec3433",
    "order": 2,
    "name": {
      "en": "400 001 - 600 000",
      "ru": "400 001 - 600 000"
    },
    "ranges": [
      "51eae100c2e6b6c222ec3434"
    ]
  },
  {
    "_id": "51eae100c2e6b6c222ec3434",
    "order": 3,
    "name": {
      "en": "600 000+",
      "ru": "600 000+"
    },
    "ranges": []
  }
]
